{
  "@odata.context": "https://jdaretailmatedevret.cloudax.dynamics.com/Commerce/$metadata#Collection(Microsoft.Dynamics.Commerce.Runtime.DataModel.ProductSearchResult)",
  "value": [
    {
      "ItemId": "9787600270",
        "Name": "Hamilton Grey Console Table",
      "Price": 429.00,
      "PrimaryImageUrl": "hamilton_grey",
      "RecordId": 301799713,
      "ExtensionProperties": []
    },
	  {
      "ItemId": "SLU135",
      "Name": "Patio Swing Lounge Chair with Umbrella",
      "Price": 359.34,
      "PrimaryImageUrl": "patioswingchair",
      "RecordId": 204988847,
      "ExtensionProperties": []
    }
  ]
}